  1, 2076
  2, 2070
  3, 2076
  5, 2078
  6, 2082
  7, 2086
  8, 2088
 10, 2092
 11, 2103
 12, 2112
 14, 1626
 15, 1488
 16, 1365
 18, 1266
 19, 1172
 20, 1094
 22, 1026
 23,  968
 25, 2270
 26, 2290
 27, 2310
 28, 2338
 30, 2360
 31, 2392
 32, 2424
 35,  436
 37,  424
 38,  412
 40,  401
 41,  390
 42,  382
 43,  372
 45,  364
 46,  356
 47,  349
 49,  342
 50,  336
 51,  330
 53,  324
 54,  319
 56,  314
 57,  310
 58,  305
 60,  301
 61,  297
 62,  293
 63,  290
 64,  287
 66,  284
 68,  281
 69,  279
 70,  276
 71,  274
 73,  272
 74,  271
 75,  269
 77,  267
 78,  266
 79,  265
 81,  264
 82,  263
 83,  262
 85,  262
 86,  261
 87,  261
 88,  261
 89,  261
 91,  260
 93,  261
 95,  261
 96,  262
 97,  263
 99,  263
100,  265
101,  266
102,  266
104,  268
105,  270
106,  272
107,  274
109,  275
110,  278
111,  280
112,  282
114,  285
115,  288
116,  291
117,  294
118,  298
120,  302
121,  304
122,  308
124,  313
125,  317
126,  321
127,  326
129,  337
131,  342
132,  349
133,  355
134,  362
136,  368
137,  377
138,  384
140,  394
141,  402
142,  413
143,  423
144,  435
146,  447
147,  450
148,  444
149,  437
150,  432
152,  427
153,  422
155,  418
156,  413
157,  409
159,  405
160,  402
161,  399
162,  396
163,  393
165,  391
166,  388
167,  386
168,  385
170,  384
171,  382
172,  380
173,  379
175,  378
176,  377
177,  378
179,  377
180,  377
181,  376
182,  377
184,  378
185,  378
186,  379
188,  380
189,  381
190,  382
192,  383
193,  385
194,  388
195,  389
197,  392
198,  394
199,  397
200,  400
202,  402
203,  406
204,  410
205,  414
206,  417
208,  421
209,  426
210,  431
211,  436
213,  441
214,  448
215,  454
217,  461
218,  468
219,  476
220,  484
222,  492
223,  500
224,  511
225,  521
227,  532
228,  544
229,  557
230,  569
231,  584
233,  599
234,  616
235,  635
236,  654
238,  679
239,  701
240,  725
241,  754
243,  786
244,  818
245,  855
246,  896
247,  941
249,  994
250, 1052
251, 1115
252, 1179
254, 1188
255, 1182
256, 1174
257, 1169
259, 1163
260, 1157
261, 1154
262, 1146
264, 1146
265, 1142
266, 1139
268, 1139
269, 1140
270, 1138
271, 1136
273, 1137
274, 1139
275, 1141
276, 1142
278, 1146
279, 1150
280, 1155
282, 1160
286,  262
287,  264
289,  266
290,  268
291,  270
292,  273
294,  275
295,  277
296,  280
297,  284
298,  286
300,  290
301,  294
302,  297
303,  302
305,  306
306,  310
307,  314
308,  319
309,  324
311,  330
312,  335
313,  341
314,  347
315,  354
317,  362
318,  369
319,  377
320,  386
321,  395
323,  405
324,  418
326, 1089
328, 1064
329, 1046
330, 1034
331, 1022
333, 1008
334,  998
335,  986
336,  975
338,  966
339,  958
340,  949
341,  940
343,  934
344,  927
345,  919
347,  914
348,  911
349,  907
350,  902
352,  898
353, 1022
354, 1260
355, 1622
356, 2074
357, 2072
359, 2076
